\relax 
\@writefile{toc}{\contentsline {section}{\numberline {5}Backend}{9}}
\@writefile{lol}{\contentsline {listing}{\numberline {3}{\ignorespaces Gradle\relax }}{9}}
\newlabel{code:gradle}{{3}{9}}
\@writefile{lol}{\contentsline {listing}{\numberline {4}{\ignorespaces Spring Config f\IeC {\"u}r JPA + existDB\relax }}{10}}
\newlabel{code:spring-config}{{4}{10}}
\@writefile{lol}{\contentsline {listing}{\numberline {5}{\ignorespaces Spring Boot Launcher\relax }}{10}}
\newlabel{code:spring-starter}{{5}{10}}
\@writefile{lol}{\contentsline {listing}{\numberline {6}{\ignorespaces ReST-Controller\relax }}{11}}
\newlabel{code:rest-controller}{{6}{11}}
\@setckpt{backend}{
\setcounter{page}{14}
\setcounter{equation}{0}
\setcounter{enumi}{0}
\setcounter{enumii}{0}
\setcounter{enumiii}{0}
\setcounter{enumiv}{0}
\setcounter{footnote}{0}
\setcounter{mpfootnote}{0}
\setcounter{part}{0}
\setcounter{section}{5}
\setcounter{subsection}{0}
\setcounter{subsubsection}{0}
\setcounter{paragraph}{0}
\setcounter{subparagraph}{0}
\setcounter{figure}{1}
\setcounter{table}{0}
\setcounter{float@type}{16}
\setcounter{FancyVerbLine}{85}
\setcounter{linenumber}{1}
\setcounter{LN@truepage}{13}
\setcounter{FancyVerbLineBreakLast}{0}
\setcounter{minted@FancyVerbLineTemp}{20}
\setcounter{listing}{6}
\setcounter{ContinuedFloat}{0}
\setcounter{lstnumber}{1}
\setcounter{subfigure}{0}
\setcounter{subtable}{0}
\setcounter{lips@count}{0}
\setcounter{parentequation}{0}
\setcounter{su@anzahl}{0}
\setcounter{LT@tables}{0}
\setcounter{LT@chunks}{0}
\setcounter{lstlisting}{0}
}
