\relax 
\@writefile{toc}{\contentsline {section}{\numberline {4}Datenquelle}{7}}
\@writefile{lol}{\contentsline {listing}{\numberline {2}{\ignorespaces JSON-Datenquelle Wiener U-Bahn Station\relax }}{7}}
\newlabel{code:data-metro}{{2}{7}}
\@setckpt{datasource}{
\setcounter{page}{9}
\setcounter{equation}{0}
\setcounter{enumi}{0}
\setcounter{enumii}{0}
\setcounter{enumiii}{0}
\setcounter{enumiv}{0}
\setcounter{footnote}{0}
\setcounter{mpfootnote}{0}
\setcounter{part}{0}
\setcounter{section}{4}
\setcounter{subsection}{0}
\setcounter{subsubsection}{0}
\setcounter{paragraph}{0}
\setcounter{subparagraph}{0}
\setcounter{figure}{1}
\setcounter{table}{0}
\setcounter{float@type}{16}
\setcounter{FancyVerbLine}{57}
\setcounter{linenumber}{1}
\setcounter{LN@truepage}{8}
\setcounter{FancyVerbLineBreakLast}{0}
\setcounter{minted@FancyVerbLineTemp}{1}
\setcounter{listing}{2}
\setcounter{ContinuedFloat}{0}
\setcounter{lstnumber}{1}
\setcounter{subfigure}{0}
\setcounter{subtable}{0}
\setcounter{lips@count}{0}
\setcounter{parentequation}{0}
\setcounter{su@anzahl}{0}
\setcounter{LT@tables}{0}
\setcounter{LT@chunks}{0}
\setcounter{lstlisting}{0}
}
