\relax 
\@writefile{toc}{\contentsline {section}{\numberline {3}Docker}{5}}
\@writefile{lol}{\contentsline {listing}{\numberline {1}{\ignorespaces docker-compose.yml\relax }}{5}}
\providecommand*\caption@xref[2]{\@setref\relax\@undefined{#1}}
\newlabel{code:docker-compose}{{1}{5}}
\@setckpt{docker}{
\setcounter{page}{7}
\setcounter{equation}{0}
\setcounter{enumi}{0}
\setcounter{enumii}{0}
\setcounter{enumiii}{0}
\setcounter{enumiv}{0}
\setcounter{footnote}{0}
\setcounter{mpfootnote}{0}
\setcounter{part}{0}
\setcounter{section}{3}
\setcounter{subsection}{0}
\setcounter{subsubsection}{0}
\setcounter{paragraph}{0}
\setcounter{subparagraph}{0}
\setcounter{figure}{1}
\setcounter{table}{0}
\setcounter{float@type}{16}
\setcounter{FancyVerbLine}{1}
\setcounter{linenumber}{1}
\setcounter{LN@truepage}{6}
\setcounter{FancyVerbLineBreakLast}{0}
\setcounter{minted@FancyVerbLineTemp}{1}
\setcounter{listing}{1}
\setcounter{ContinuedFloat}{0}
\setcounter{lstnumber}{1}
\setcounter{subfigure}{0}
\setcounter{subtable}{0}
\setcounter{lips@count}{0}
\setcounter{parentequation}{0}
\setcounter{su@anzahl}{0}
\setcounter{LT@tables}{0}
\setcounter{LT@chunks}{0}
\setcounter{lstlisting}{0}
}
