\relax 
\@writefile{toc}{\contentsline {section}{\numberline {8}Exist GUI}{19}}
\@writefile{toc}{\contentsline {subsection}{\numberline {8.1}Exist Web-GUI}{19}}
\@writefile{lof}{\contentsline {figure}{\numberline {3}{\ignorespaces existDB Web Dashboard\relax }}{19}}
\@writefile{lof}{\contentsline {figure}{\numberline {4}{\ignorespaces existDB Web Explorer - Auflistung der Ressources in der Collection /opendataaustria/metro\relax }}{20}}
\@writefile{lof}{\contentsline {figure}{\numberline {5}{\ignorespaces existDB - XQuery + Output\relax }}{20}}
\@writefile{lof}{\contentsline {figure}{\numberline {6}{\ignorespaces existDB - Validation\relax }}{21}}
\@writefile{toc}{\contentsline {subsection}{\numberline {8.2}Exist Java Admin Client}{21}}
\@writefile{lof}{\contentsline {figure}{\numberline {7}{\ignorespaces Download \Gls {JNLP}-Starter File\relax }}{21}}
\@writefile{lof}{\contentsline {figure}{\numberline {8}{\ignorespaces Best\IeC {\"a}tigung der Ausf\IeC {\"u}hrung\relax }}{22}}
\@writefile{lof}{\contentsline {figure}{\numberline {9}{\ignorespaces Verhinderung der Ausf\IeC {\"u}hrung\relax }}{22}}
\@writefile{lof}{\contentsline {figure}{\numberline {10}{\ignorespaces Hinzuf\IeC {\"u}gen der URL zur Ausnahmeliste um das \IeC {\"O}ffnen der Datei mit self-signed Certificate zu erm\IeC {\"o}glichen.\relax }}{23}}
\@writefile{lof}{\contentsline {figure}{\numberline {11}{\ignorespaces Zus\IeC {\"a}tzliche Warn-Meldung\relax }}{24}}
\@writefile{lof}{\contentsline {figure}{\numberline {12}{\ignorespaces existDB - Login\relax }}{24}}
\@writefile{lof}{\contentsline {figure}{\numberline {13}{\ignorespaces Navigation in den existDB-Collections\relax }}{25}}
\@writefile{lof}{\contentsline {figure}{\numberline {14}{\ignorespaces Ausf\IeC {\"u}hrung von XQueries und Anzeige der Ergebnisse\relax }}{25}}
\@writefile{lof}{\contentsline {figure}{\numberline {15}{\ignorespaces Schema-Validierung und Anzeige des Ergebnisses\relax }}{26}}
\@setckpt{exist-gui}{
\setcounter{page}{27}
\setcounter{equation}{0}
\setcounter{enumi}{0}
\setcounter{enumii}{0}
\setcounter{enumiii}{0}
\setcounter{enumiv}{0}
\setcounter{footnote}{0}
\setcounter{mpfootnote}{0}
\setcounter{part}{0}
\setcounter{section}{8}
\setcounter{subsection}{2}
\setcounter{subsubsection}{0}
\setcounter{paragraph}{0}
\setcounter{subparagraph}{0}
\setcounter{figure}{15}
\setcounter{table}{0}
\setcounter{float@type}{16}
\setcounter{FancyVerbLine}{33}
\setcounter{linenumber}{1}
\setcounter{LN@truepage}{26}
\setcounter{FancyVerbLineBreakLast}{0}
\setcounter{minted@FancyVerbLineTemp}{31}
\setcounter{listing}{10}
\setcounter{ContinuedFloat}{0}
\setcounter{lstnumber}{1}
\setcounter{subfigure}{0}
\setcounter{subtable}{0}
\setcounter{lips@count}{0}
\setcounter{parentequation}{0}
\setcounter{su@anzahl}{0}
\setcounter{LT@tables}{0}
\setcounter{LT@chunks}{0}
\setcounter{lstlisting}{0}
}
