\select@language {english}
\contentsline {figure}{\numberline {1}{\ignorespaces Architektur\relax }}{4}
\contentsline {figure}{\numberline {2}{\ignorespaces Generierung eines XSD aus einem XML in IntelliJ\relax }}{10}
\contentsline {figure}{\numberline {3}{\ignorespaces Optionen f\IeC {\"u}r XSD-Generierung\relax }}{10}
\contentsline {figure}{\numberline {4}{\ignorespaces XML-File nicht wellformed\relax }}{15}
\contentsline {figure}{\numberline {5}{\ignorespaces XML-File nicht valide\relax }}{15}
\contentsline {figure}{\numberline {6}{\ignorespaces XML-File nicht valide\relax }}{16}
\contentsline {figure}{\numberline {7}{\ignorespaces XML-File nicht valide\relax }}{16}
\contentsline {figure}{\numberline {8}{\ignorespaces XML-File nicht valide\relax }}{17}
\contentsline {figure}{\numberline {9}{\ignorespaces existDB - Validation\relax }}{18}
\contentsline {figure}{\numberline {10}{\ignorespaces existDB Web Dashboard\relax }}{23}
\contentsline {figure}{\numberline {11}{\ignorespaces existDB Web Explorer - Auflistung der Ressources in der Collection /opendataaustria/metro\relax }}{24}
\contentsline {figure}{\numberline {12}{\ignorespaces existDB - XQuery + Output: Join von Files mit bzw. ohne Schema-Angabe\relax }}{25}
\contentsline {figure}{\numberline {13}{\ignorespaces Download \Gls {JNLP}-Starter File\relax }}{26}
\contentsline {figure}{\numberline {14}{\ignorespaces Best\IeC {\"a}tigung der Ausf\IeC {\"u}hrung\relax }}{26}
\contentsline {figure}{\numberline {15}{\ignorespaces Verhinderung der Ausf\IeC {\"u}hrung\relax }}{26}
\contentsline {figure}{\numberline {16}{\ignorespaces Hinzuf\IeC {\"u}gen der URL zur Ausnahmeliste um das \IeC {\"O}ffnen der Datei mit self-signed Certificate zu erm\IeC {\"o}glichen.\relax }}{27}
\contentsline {figure}{\numberline {17}{\ignorespaces Zus\IeC {\"a}tzliche Warn-Meldung\relax }}{28}
\contentsline {figure}{\numberline {18}{\ignorespaces existDB - Login\relax }}{28}
\contentsline {figure}{\numberline {19}{\ignorespaces Navigation in den existDB-Collections\relax }}{29}
\contentsline {figure}{\numberline {20}{\ignorespaces Ausf\IeC {\"u}hrung von XQueries und Anzeige der Ergebnisse\relax }}{29}
\contentsline {figure}{\numberline {21}{\ignorespaces Schema-Validierung und Anzeige des Ergebnisses\relax }}{30}
\contentsline {figure}{\numberline {22}{\ignorespaces React-GUI\relax }}{31}
\contentsline {figure}{\numberline {23}{\ignorespaces Validierung des XML und Anzeige des Ergebnis\relax }}{32}
\contentsline {figure}{\numberline {24}{\ignorespaces Ausgabe Jupyter Notebook\relax }}{34}
