\relax 
\providecommand\@newglossary[4]{}
\@newglossary{main}{glg}{gls}{glo}
\providecommand\@glsorder[1]{}
\providecommand\@istfilename[1]{}
\@istfilename{main.ist}
\@glsorder{word}
\select@language{english}
\@writefile{toc}{\select@language{english}}
\@writefile{lof}{\select@language{english}}
\@writefile{lot}{\select@language{english}}
\@writefile{toc}{\contentsline {section}{\numberline {1}UseCase}{3}}
\@writefile{toc}{\contentsline {section}{\numberline {2}Architektur}{3}}
\@writefile{lof}{\contentsline {figure}{\numberline {1}{\ignorespaces Architektur\relax }}{4}}
\@writefile{toc}{\contentsline {section}{\numberline {3}Docker}{4}}
\@writefile{lol}{\contentsline {listing}{\numberline {1}{\ignorespaces docker-compose.yml\relax }}{4}}
\providecommand*\caption@xref[2]{\@setref\relax\@undefined{#1}}
\newlabel{code:docker-compose}{{1}{4}}
\@writefile{toc}{\contentsline {section}{\numberline {4}Datenquelle}{6}}
\@writefile{lol}{\contentsline {listing}{\numberline {2}{\ignorespaces JSON-Datenquelle Wiener U-Bahn Station\relax }}{6}}
\newlabel{code:data-metro}{{2}{6}}
\@writefile{toc}{\contentsline {section}{\numberline {5}Postgres}{7}}
\@writefile{lol}{\contentsline {listing}{\numberline {3}{\ignorespaces Tabelle mit Trigger\relax }}{7}}
\newlabel{code:table-with-trigger}{{3}{7}}
\@writefile{lol}{\contentsline {listing}{\numberline {4}{\ignorespaces Konvertierung der JSON-Spalte nach XML\relax }}{8}}
\newlabel{code:json-to-xml}{{4}{8}}
\@writefile{lol}{\contentsline {listing}{\numberline {5}{\ignorespaces XML-Result\relax }}{8}}
\newlabel{code:aggregated-xml}{{5}{8}}
\@writefile{toc}{\contentsline {section}{\numberline {6}Erstellung eines Schema}{9}}
\@writefile{lof}{\contentsline {figure}{\numberline {2}{\ignorespaces Generierung eines XSD aus einem XML in IntelliJ\relax }}{10}}
\@writefile{lof}{\contentsline {figure}{\numberline {3}{\ignorespaces Optionen f\IeC {\"u}r XSD-Generierung\relax }}{10}}
\@writefile{lol}{\contentsline {listing}{\numberline {6}{\ignorespaces XSD generiert\relax }}{11}}
\newlabel{code:generated-xsd}{{6}{11}}
\@writefile{lol}{\contentsline {listing}{\numberline {7}{\ignorespaces XSD nachbearbeitet\relax }}{12}}
\newlabel{code:generated-xsd-edited}{{7}{12}}
\@writefile{lol}{\contentsline {listing}{\numberline {8}{\ignorespaces XSD\relax }}{14}}
\newlabel{code:xml-with-schema-definition}{{8}{14}}
\@writefile{toc}{\contentsline {section}{\numberline {7}XML-Validierung}{14}}
\@writefile{toc}{\contentsline {subsection}{\numberline {7.1}Implizierte XML-Validierung}{14}}
\@writefile{lol}{\contentsline {listing}{\numberline {9}{\ignorespaces existDB config.xml\relax }}{14}}
\newlabel{code:xonf.xml}{{9}{14}}
\@writefile{lol}{\contentsline {listing}{\numberline {10}{\ignorespaces catalog.xml\relax }}{14}}
\newlabel{code:catalog.xml}{{10}{14}}
\@writefile{lol}{\contentsline {listing}{\numberline {11}{\ignorespaces lokale XSD in Docker-Container kopieren\relax }}{14}}
\newlabel{code:docker-copy-local-xsd}{{11}{14}}
\@writefile{lof}{\contentsline {figure}{\numberline {4}{\ignorespaces XML-File nicht wellformed\relax }}{15}}
\@writefile{lof}{\contentsline {figure}{\numberline {5}{\ignorespaces XML-File nicht valide\relax }}{15}}
\@writefile{lof}{\contentsline {figure}{\numberline {6}{\ignorespaces XML-File nicht valide\relax }}{16}}
\@writefile{lof}{\contentsline {figure}{\numberline {7}{\ignorespaces XML-File nicht valide\relax }}{16}}
\@writefile{lof}{\contentsline {figure}{\numberline {8}{\ignorespaces XML-File nicht valide\relax }}{17}}
\@writefile{toc}{\contentsline {subsection}{\numberline {7.2}Explizite XML-Validierung}{17}}
\@writefile{lof}{\contentsline {figure}{\numberline {9}{\ignorespaces existDB - Validation\relax }}{18}}
\@writefile{toc}{\contentsline {section}{\numberline {8}Backend}{18}}
\@writefile{lol}{\contentsline {listing}{\numberline {12}{\ignorespaces Gradle\relax }}{18}}
\newlabel{code:gradle}{{12}{18}}
\@writefile{lol}{\contentsline {listing}{\numberline {13}{\ignorespaces Spring Config f\IeC {\"u}r JPA + existDB\relax }}{19}}
\newlabel{code:spring-config}{{13}{19}}
\@writefile{lol}{\contentsline {listing}{\numberline {14}{\ignorespaces Spring Boot Launcher\relax }}{20}}
\newlabel{code:spring-starter}{{14}{20}}
\@writefile{lol}{\contentsline {listing}{\numberline {15}{\ignorespaces ReST-Controller\relax }}{20}}
\newlabel{code:rest-controller}{{15}{20}}
\@writefile{toc}{\contentsline {section}{\numberline {9}Exist GUI}{22}}
\@writefile{toc}{\contentsline {subsection}{\numberline {9.1}Exist Web-GUI}{22}}
\@writefile{lof}{\contentsline {figure}{\numberline {10}{\ignorespaces existDB Web Dashboard\relax }}{23}}
\@writefile{lof}{\contentsline {figure}{\numberline {11}{\ignorespaces existDB Web Explorer - Auflistung der Ressources in der Collection /opendataaustria/metro\relax }}{24}}
\@writefile{lof}{\contentsline {figure}{\numberline {12}{\ignorespaces existDB - XQuery + Output: Join von Files mit bzw. ohne Schema-Angabe\relax }}{25}}
\@writefile{toc}{\contentsline {subsection}{\numberline {9.2}Exist Java Admin Client}{25}}
\@writefile{lof}{\contentsline {figure}{\numberline {13}{\ignorespaces Download \Gls {JNLP}-Starter File\relax }}{26}}
\@writefile{lof}{\contentsline {figure}{\numberline {14}{\ignorespaces Best\IeC {\"a}tigung der Ausf\IeC {\"u}hrung\relax }}{26}}
\@writefile{lof}{\contentsline {figure}{\numberline {15}{\ignorespaces Verhinderung der Ausf\IeC {\"u}hrung\relax }}{26}}
\@writefile{lof}{\contentsline {figure}{\numberline {16}{\ignorespaces Hinzuf\IeC {\"u}gen der URL zur Ausnahmeliste um das \IeC {\"O}ffnen der Datei mit self-signed Certificate zu erm\IeC {\"o}glichen.\relax }}{27}}
\@writefile{lof}{\contentsline {figure}{\numberline {17}{\ignorespaces Zus\IeC {\"a}tzliche Warn-Meldung\relax }}{28}}
\@writefile{lof}{\contentsline {figure}{\numberline {18}{\ignorespaces existDB - Login\relax }}{28}}
\@writefile{lof}{\contentsline {figure}{\numberline {19}{\ignorespaces Navigation in den existDB-Collections\relax }}{29}}
\@writefile{lof}{\contentsline {figure}{\numberline {20}{\ignorespaces Ausf\IeC {\"u}hrung von XQueries und Anzeige der Ergebnisse\relax }}{29}}
\@writefile{lof}{\contentsline {figure}{\numberline {21}{\ignorespaces Schema-Validierung und Anzeige des Ergebnisses\relax }}{30}}
\@writefile{toc}{\contentsline {section}{\numberline {10}GUI (React)}{30}}
\@writefile{lof}{\contentsline {figure}{\numberline {22}{\ignorespaces React-GUI\relax }}{31}}
\@writefile{lof}{\contentsline {figure}{\numberline {23}{\ignorespaces Validierung des XML und Anzeige des Ergebnis\relax }}{32}}
\@writefile{toc}{\contentsline {section}{\numberline {11}Jupyter Notebook}{32}}
\@writefile{lol}{\contentsline {listing}{\numberline {16}{\ignorespaces Jupyter Notebook\relax }}{32}}
\newlabel{code:jupyter-notebook}{{16}{32}}
\@writefile{lof}{\contentsline {figure}{\numberline {24}{\ignorespaces Ausgabe Jupyter Notebook\relax }}{34}}
\gdef\minted@oldcachelist{,
  default.pygstyle,
  colorful.pygstyle,
  default-pyg-prefix.pygstyle,
  749FF6C92FD90DB78A9BFFA38044823387318ED3CFFB48AF6C56A5A6B7BE6F15.pygtex,
  29F6CF404EB94BC15B39C50740653E04FBB87EB73BB6F2AE539C582E3D8D7C4F.pygtex,
  4330E545C8825A1BA494314C105D2AFE70FE0CCBCA7C7A4F7275B8A6FDF84953.pygtex,
  1D7966FBF1FCD8D79482949ABCD338EC70FE0CCBCA7C7A4F7275B8A6FDF84953.pygtex,
  3BFCFAD3AF8D12DB9BB5366A8B1E40A2732B7A9F4DF0C7D48C7F5D786AD87FEC.pygtex,
  3DE50EF7E863112CAC8014CE1E2A2D2A99B76DF1C883F8A48C0E719C6E1DE978.pygtex,
  9CF616A28A3E98C50D5EF67098A8EC8399B76DF1C883F8A48C0E719C6E1DE978.pygtex,
  138E74EBFE69E5F15AC66611BCF6A6D2B5950D76F39E1CC9C5C1DBA7F93BA9E8.pygtex,
  48866B24FB9EC42E39D7B36CE96F758EB5950D76F39E1CC9C5C1DBA7F93BA9E8.pygtex,
  BB61CDDDCDEA502574F405729902AC35B5950D76F39E1CC9C5C1DBA7F93BA9E8.pygtex,
  81457C86A42D84502114E07938E302FAB5950D76F39E1CC9C5C1DBA7F93BA9E8.pygtex,
  14E77AEEF7666A58496F69B2B7DD7F84B5950D76F39E1CC9C5C1DBA7F93BA9E8.pygtex,
  B3BDD6EA836399A6374715103B8F1CCBB5950D76F39E1CC9C5C1DBA7F93BA9E8.pygtex,
  0819FA3BC0B15311918D308EA2EEB941A8462FD1C214ED80FDED64CD2D0A4925.pygtex,
  7BFD54E205AF391ADA900B895E8542A8F72C89A81BA34B82DD460EC8877D6DBE.pygtex,
  58A04BB1B451A8CBACE37D7F122AC08287318ED3CFFB48AF6C56A5A6B7BE6F15.pygtex,
  625297379AD6EA0ACEA88BA839445A234481F399DE7F477505F3CEDC5B0502E1.pygtex,
  44585536F8B583D7B7E5691FB703B36E4481F399DE7F477505F3CEDC5B0502E1.pygtex,
  41865C703C25A4F0817EAFC247C15D047BC9F1650E5147204109012551E408CD.pygtex}
\newlabel{LastPage}{{}{35}}
\xdef\lastpage@lastpage{35}
\gdef\lastpage@lastpageHy{}
