\relax 
\@writefile{toc}{\contentsline {section}{\numberline {6}Postgres}{14}}
\@writefile{lol}{\contentsline {listing}{\numberline {7}{\ignorespaces Tabelle mit Trigger\relax }}{14}}
\newlabel{code:table-with-trigger}{{7}{14}}
\@writefile{lol}{\contentsline {listing}{\numberline {8}{\ignorespaces Konvertierung der JSON-Spalte nach XML\relax }}{14}}
\newlabel{code:json-to-xml}{{8}{14}}
\@writefile{lol}{\contentsline {listing}{\numberline {9}{\ignorespaces XML-Result\relax }}{15}}
\newlabel{code:aggregated-xml}{{9}{15}}
\@setckpt{postgres}{
\setcounter{page}{17}
\setcounter{equation}{0}
\setcounter{enumi}{0}
\setcounter{enumii}{0}
\setcounter{enumiii}{0}
\setcounter{enumiv}{0}
\setcounter{footnote}{0}
\setcounter{mpfootnote}{0}
\setcounter{part}{0}
\setcounter{section}{6}
\setcounter{subsection}{0}
\setcounter{subsubsection}{0}
\setcounter{paragraph}{0}
\setcounter{subparagraph}{0}
\setcounter{figure}{1}
\setcounter{table}{0}
\setcounter{float@type}{16}
\setcounter{FancyVerbLine}{31}
\setcounter{linenumber}{1}
\setcounter{LN@truepage}{16}
\setcounter{FancyVerbLineBreakLast}{0}
\setcounter{minted@FancyVerbLineTemp}{14}
\setcounter{listing}{9}
\setcounter{ContinuedFloat}{0}
\setcounter{lstnumber}{1}
\setcounter{subfigure}{0}
\setcounter{subtable}{0}
\setcounter{lips@count}{0}
\setcounter{parentequation}{0}
\setcounter{su@anzahl}{0}
\setcounter{LT@tables}{0}
\setcounter{LT@chunks}{0}
\setcounter{lstlisting}{0}
}
