\relax 
\@writefile{lof}{\contentsline {figure}{\numberline {2}{\ignorespaces Generierung eines XSD aus einem XML in IntelliJ\relax }}{17}}
\@writefile{toc}{\contentsline {section}{\numberline {7}Erstellung eines Schema}{17}}
\@writefile{lol}{\contentsline {listing}{\numberline {10}{\ignorespaces XSD\relax }}{17}}
\newlabel{code:generated-xsd}{{10}{17}}
\@setckpt{schema}{
\setcounter{page}{19}
\setcounter{equation}{0}
\setcounter{enumi}{0}
\setcounter{enumii}{0}
\setcounter{enumiii}{0}
\setcounter{enumiv}{0}
\setcounter{footnote}{0}
\setcounter{mpfootnote}{0}
\setcounter{part}{0}
\setcounter{section}{7}
\setcounter{subsection}{0}
\setcounter{subsubsection}{0}
\setcounter{paragraph}{0}
\setcounter{subparagraph}{0}
\setcounter{figure}{2}
\setcounter{table}{0}
\setcounter{float@type}{16}
\setcounter{FancyVerbLine}{33}
\setcounter{linenumber}{1}
\setcounter{LN@truepage}{18}
\setcounter{FancyVerbLineBreakLast}{0}
\setcounter{minted@FancyVerbLineTemp}{31}
\setcounter{listing}{10}
\setcounter{ContinuedFloat}{0}
\setcounter{lstnumber}{1}
\setcounter{subfigure}{0}
\setcounter{subtable}{0}
\setcounter{lips@count}{0}
\setcounter{parentequation}{0}
\setcounter{su@anzahl}{0}
\setcounter{LT@tables}{0}
\setcounter{LT@chunks}{0}
\setcounter{lstlisting}{0}
}
